Division,WeightClassKg,Place,Name,Team,BodyweightKg,Best3SquatKg,Best3BenchKg,Best3DeadliftKg,TotalKg,Equipment,Event,Sex,BirthDate
Girls,44.23,1,Ariana Jarillo,Sherman,43.91,92.99,52.16,111.13,256.28,Unlimited,SBD,F,
Girls,44.23,2,Kyndal Robbins,Azle,43.59,86.18,47.63,104.33,238.14,Unlimited,SBD,F,
Girls,44.23,3,Ryleigh Myers,Azle,43.5,79.38,54.43,95.25,229.06,Unlimited,SBD,F,
Girls,44.23,4,Josephine Lea,Justin Northwest,43,77.11,49.9,74.84,201.85,Unlimited,SBD,F,
Girls,44.23,5,Lilly Carruthers,Aledo,44,74.84,45.36,74.84,195.04,Unlimited,SBD,F,
Girls,44.23,6,Maria Brown,Sherman,42.09,58.97,31.75,65.77,156.49,Unlimited,SBD,F,
Girls,47.85,1,Ella Swaim,Azle,47.4,106.59,54.43,108.86,269.89,Unlimited,SBD,F,
Girls,47.85,2,Tiffany Jarillo,Sherman,47.81,104.33,58.97,92.99,256.28,Unlimited,SBD,F,
Girls,47.85,3,Paizlee Gray,Azle,46.72,90.72,58.97,97.52,247.21,Unlimited,SBD,F,
Girls,47.85,4,Aubrey Tandianno,Mansfield Timberview,47.72,95.25,43.09,90.72,229.06,Unlimited,SBD,F,
Girls,47.85,5,Raylnne Segura,Sherman,47.4,95.25,43.09,88.45,226.8,Unlimited,SBD,F,
Girls,47.85,6,Alyssa Cain,Sherman,47.72,77.11,52.16,83.91,213.19,Unlimited,SBD,F,
Girls,47.85,7,Nea Hernandez,Azle,44.91,65.77,43.09,77.11,185.97,Unlimited,SBD,F,
Girls,47.85,8,Kimber Gray,Azle,46.81,68.04,40.82,72.57,181.44,Unlimited,SBD,F,
Girls,47.85,9,Michelle Lechuga,Azle,45.59,68.04,36.29,72.57,176.9,Unlimited,SBD,F,
Girls,47.85,10,Kylie Dernovich,Aledo,46.08,63.5,31.75,61.23,156.49,Unlimited,SBD,F,
Girls,47.85,DQ,Lia Diaz,Carrollton Turner,46.72,,,,,Unlimited,SBD,F,
Girls,47.85,DQ,Kaya Davis,Carrollton Turner,46.9,,,,,Unlimited,SBD,F,
Girls,51.94,1,Sherlyn Torres,Carrollton Turner,49.4,113.4,61.23,142.88,317.51,Unlimited,SBD,F,
Girls,51.94,2,Mila Luangraj,Saginaw,50.8,111.13,45.36,127.01,283.5,Unlimited,SBD,F,
Girls,51.94,3,Aliana Cintron,Saginaw,50.8,102.06,54.43,120.2,276.69,Unlimited,SBD,F,
Girls,51.94,4,Morgan Sehnem,Aledo,50.21,111.13,54.43,108.86,274.42,Unlimited,SBD,F,
Girls,51.94,5,Paige Phillips,Sherman,50.98,115.67,49.9,97.52,263.08,Unlimited,SBD,F,
Girls,51.94,6,Peyton Hill,Azle,50.48,92.99,54.43,113.4,260.82,Unlimited,SBD,F,
Girls,51.94,7,Mylie Miller,Sherman,51.48,106.59,63.5,88.45,258.55,Unlimited,SBD,F,
Girls,51.94,8,Zoe LaPraim,Aledo,51.3,79.38,49.9,102.06,231.33,Unlimited,SBD,F,
Girls,51.94,9,Cooper King #2,Azle,49.8,81.65,40.82,83.91,206.38,Unlimited,SBD,F,
Girls,51.94,10,Aidan Smith,Azle,49.58,81.65,45.36,77.11,204.12,Unlimited,SBD,F,
Girls,56.02,1,Raegan Williams,Azle,54.39,151.95,79.38,163.29,394.63,Unlimited,SBD,F,
Girls,56.02,2,Bryanna Orr,Aledo,55.29,117.93,74.84,117.93,310.71,Unlimited,SBD,F,
Girls,56.02,3,Charlee Soward,Aledo,55.88,113.4,65.77,113.4,292.57,Unlimited,SBD,F,
Girls,56.02,4,Cynajha Johnson,Mansfield Timberview,55.02,115.67,40.82,122.47,278.96,Unlimited,SBD,F,
Girls,56.02,5,Mckynleigh Sisk,Azle,55.02,104.33,72.57,102.06,278.96,Unlimited,SBD,F,
Girls,56.02,6,Macie Baker,Azle,54.39,106.59,54.43,115.67,276.69,Unlimited,SBD,F,
Girls,56.02,7,Elisa Vargas,Saginaw,55.29,102.06,45.36,104.33,251.74,Unlimited,SBD,F,
Girls,56.02,8,Savannah Shawkey,Sherman,53.98,90.72,52.16,102.06,244.94,Unlimited,SBD,F,
Girls,56.02,9,Jaidyn Hildebrand,Saginaw,54.2,79.38,49.9,108.86,238.14,Unlimited,SBD,F,
Girls,56.02,10,Mayela Soto,Carrollton Turner,55.29,86.18,43.09,97.52,226.8,Unlimited,SBD,F,
Girls,56.02,11,Addison Van Hooser,Azle,53.3,81.65,45.36,97.52,224.53,Unlimited,SBD,F,
Girls,56.02,12,Elinor Hensel,Justin Northwest,53.48,81.65,49.9,83.91,215.46,Unlimited,SBD,F,
Girls,56.02,13,Emery Ford,Azle,53.71,90.72,38.56,81.65,210.92,Unlimited,SBD,F,
Girls,56.02,DQ,Natalie Swift,Saginaw,56.02,,,,,Unlimited,SBD,F,
Girls,60.1,1,Hannah Clark,Aledo,58.79,131.54,77.11,147.42,356.07,Unlimited,SBD,F,
Girls,60.1,2,Madison Widmayer,Aledo,59.19,129.27,74.84,120.2,324.32,Unlimited,SBD,F,
Girls,60.1,3,Makalya Thomison,Sherman,57.11,129.27,68.04,117.93,315.25,Unlimited,SBD,F,
Girls,60.1,4,Cooper Yates,Azle,57.7,117.93,63.5,124.74,306.17,Unlimited,SBD,F,
Girls,60.1,5,Dakota Donaldson,Azle,59.01,108.86,72.57,113.4,294.84,Unlimited,SBD,F,
Girls,60.1,6,Daisy Rodriguez,Carrollton Turner,59.42,117.93,52.16,111.13,281.23,Unlimited,SBD,F,
Girls,60.1,7,Stella Kendall,Aledo,59.19,104.33,63.5,106.59,274.42,Unlimited,SBD,F,
Girls,60.1,8,Marlie Dixon,Sherman,59.6,111.13,63.5,92.99,267.62,Unlimited,SBD,F,
Girls,60.1,9,Kellar Gunter,Azle,56.61,95.25,49.9,117.93,263.08,Unlimited,SBD,F,
Girls,60.1,10,Milkah Ogega,Mansfield Timberview,59.01,95.25,49.9,115.67,260.82,Unlimited,SBD,F,
Girls,60.1,11,Hannah Johns,Azle,59.28,95.25,65.77,92.99,254.01,Unlimited,SBD,F,
Girls,60.1,DQ,Paola Flores,Carrollton Turner,57.88,120.2,56.7,,,Unlimited,SBD,F,
Girls,67.36,1,Ari Mathias,Aledo,65.18,145.15,86.18,124.74,356.07,Unlimited,SBD,F,
Girls,67.36,2,Katherine Sierra,Carrollton Turner,62.1,156.49,72.57,124.74,353.8,Unlimited,SBD,F,
Girls,67.36,3,Haley Carlson,Azle,66.32,133.81,77.11,136.08,347,Unlimited,SBD,F,
Girls,67.36,4,Bella Wilkerson,Sherman,65.91,142.88,74.84,115.67,333.39,Unlimited,SBD,F,
Girls,67.36,5,Monika Piatek,McKinney North,67.18,129.27,65.77,120.2,315.25,Unlimited,SBD,F,
Girls,67.36,6,Kayley Brekel,Azle,66.41,113.4,70.31,124.74,308.44,Unlimited,SBD,F,
Girls,67.36,7,Breleigh Mayer,Aledo,65.41,111.13,61.23,120.2,292.57,Unlimited,SBD,F,
Girls,67.36,8,Ryleigh Cire,Azle,66,104.33,68.04,108.86,281.23,Unlimited,SBD,F,
Girls,67.36,9,Kenzie Arellano,Azle,64.09,106.59,70.31,99.79,276.69,Unlimited,SBD,F,
Girls,67.36,10,Andie Flores,Carrollton Turner,66,104.33,43.09,124.74,272.16,Unlimited,SBD,F,
Girls,67.36,11,Marissa Spencer,Sherman,65.91,104.33,58.97,95.25,258.55,Unlimited,SBD,F,
Girls,67.36,DQ,Galilea Hernández,Carrollton Turner,66,,,,,Unlimited,SBD,F,
Girls,75.07,1,Francis Arroyo,Saginaw,73.71,183.7,102.06,151.95,437.72,Unlimited,SBD,F,
Girls,75.07,2,Nghi Tran,Saginaw,74.71,179.17,74.84,149.69,403.7,Unlimited,SBD,F,
Girls,75.07,3,Eva Coco,Sherman,69.08,147.42,72.57,131.54,351.53,Unlimited,SBD,F,
Girls,75.07,4,Mary Clare Foley,Sherman,71.8,131.54,63.5,129.27,324.32,Unlimited,SBD,F,
Girls,75.07,5,Jocelyn Garcia,Justin Northwest,72.67,122.47,65.77,133.81,322.05,Unlimited,SBD,F,
Girls,75.07,6,Eylayna Salinas,Sherman,71.99,124.74,65.77,127.01,317.51,Unlimited,SBD,F,
Girls,75.07,7,Martinez Clarissa,Carrollton Turner,70.81,127.01,74.84,113.4,315.25,Unlimited,SBD,F,
Girls,75.07,8,Ziara Young,Frisco Heritage,72.71,117.93,58.97,129.27,306.17,Unlimited,SBD,F,
Girls,75.07,9,Amaya Briscoe,Saginaw,72.71,102.06,74.84,117.93,294.84,Unlimited,SBD,F,
Girls,75.07,10,Sofia Dimas,Carrollton Turner,73.21,108.86,61.23,117.93,288.03,Unlimited,SBD,F,
Girls,75.07,11,Savannah Bond,Sherman,73.3,115.67,63.5,106.59,285.76,Unlimited,SBD,F,
Girls,75.07,12,Liliana Rodriguez,Azle,69.9,111.13,56.7,113.4,281.23,Unlimited,SBD,F,
Girls,75.07,DQ,Carly McKinney,Justin Northwest,73.62,136.08,,,,Unlimited,SBD,F,
Girls,82.33,1,Emma Sustala,Azle,75.48,163.29,88.45,138.35,390.09,Unlimited,SBD,F,
Girls,82.33,2,Krystyna Piatek,McKinney North,75.8,145.15,79.38,147.42,371.95,Unlimited,SBD,F,
Girls,82.33,3,Rihanna Sias,Frisco Heritage,82.01,136.08,83.91,147.42,367.41,Unlimited,SBD,F,
Girls,82.33,4,Joslyn Olivares,Carrollton Turner,80.38,140.61,81.65,133.81,356.07,Unlimited,SBD,F,
Girls,82.33,5,Gabby Melendez,Carrollton Turner,79.88,140.61,70.31,136.08,347,Unlimited,SBD,F,
Girls,82.33,6,Kamryn Flanagan,Justin Northwest,78.38,136.08,74.84,124.74,335.66,Unlimited,SBD,F,
Girls,82.33,7,Allie Beaver,Sherman,78.7,120.2,90.72,113.4,324.32,Unlimited,SBD,F,
Girls,82.33,8,Aryana Hernandez,Sherman,78.61,127.01,68.04,115.67,310.71,Unlimited,SBD,F,
Girls,82.33,9,Jazlyn Wade,Sherman,75.21,122.47,68.04,113.4,303.91,Unlimited,SBD,F,
Girls,82.33,10,Jayden Staggs,Aledo,80.69,113.4,74.84,104.33,292.57,Unlimited,SBD,F,
Girls,82.33,11,Elena Moreno,Carrollton Turner,81.1,115.67,65.77,99.79,281.23,Unlimited,SBD,F,
Girls,82.33,12,Abby Gilbert,Aledo,77.79,106.59,65.77,102.06,274.42,Unlimited,SBD,F,
Girls,82.33,13,Ryann Baker,Azle,78.52,102.06,58.97,106.59,267.62,Unlimited,SBD,F,
Girls,90.04,1,Aubrey Borjas,Frisco Heritage,85.68,181.44,90.72,163.29,435.45,Unlimited,SBD,F,
Girls,90.04,2,Jada Washington,Sherman,87,158.76,86.18,172.37,417.3,Unlimited,SBD,F,
Girls,90.04,3,Ashley Bailey,Saginaw,87.59,145.15,86.18,142.88,374.21,Unlimited,SBD,F,
Girls,90.04,4,Jay Diaz Sujo,McKinney North,85.32,149.69,61.23,149.69,360.61,Unlimited,SBD,F,
Girls,90.04,5,Leya Applewhite,Saginaw,88.31,127.01,58.97,136.08,322.05,Unlimited,SBD,F,
Girls,90.04,6,Jordan Johnson,Saginaw,88.9,113.4,79.38,129.27,322.05,Unlimited,SBD,F,
Girls,90.04,7,Madilyn Burgess,Azle,87.91,120.2,65.77,111.13,297.1,Unlimited,SBD,F,
Girls,90.04,8,Ally Gilbert,Aledo,88.31,113.4,61.23,113.4,288.03,Unlimited,SBD,F,
Girls,90.04,9,Destiny Skaggs,Justin Northwest,83.19,90.72,47.63,90.72,229.06,Unlimited,SBD,F,
Girls,100.02,1,Libby Cernero,Sherman,98.52,147.42,124.74,145.15,417.3,Unlimited,SBD,F,
Girls,100.02,2,Adrianna Lambert,Aledo,90.49,156.49,72.57,147.42,376.48,Unlimited,SBD,F,
Girls,100.02,3,Hannah Brown,Saginaw,92.22,158.76,81.65,136.08,376.48,Unlimited,SBD,F,
Girls,100.02,4,Allison Ortiz,Saginaw,91.58,140.61,61.23,140.61,342.46,Unlimited,SBD,F,
Girls,100.02,5,Lily Baker,Justin Northwest,95.8,140.61,61.23,138.35,340.19,Unlimited,SBD,F,
Girls,100.02,6,Seven Favors,McKinney North,91.72,111.13,70.31,120.2,301.64,Unlimited,SBD,F,
Girls,100.02,7,Natalie Vasquez,Azle,96.21,117.93,74.84,104.33,297.1,Unlimited,SBD,F,
Girls,100.02,8,Lauren Snow,Justin Northwest,98.7,92.99,56.7,95.25,244.94,Unlimited,SBD,F,
Girls,110,1,Haley Gentry,Sherman,105.6,170.1,104.33,136.08,410.5,Unlimited,SBD,F,
Girls,110,2,Daira Najera,Justin Northwest,106.41,88.45,52.16,111.13,251.74,Unlimited,SBD,F,
Girls,110,DQ,Adrianna Ramos,Justin Northwest,102.01,,,,,Unlimited,SBD,F,
Girls,110,DQ,Jessie Johnson,Azle,106.28,,,,,Unlimited,SBD,F,
Girls,110,DQ,Daniella Inana,Saginaw,103.19,,,,,Unlimited,SBD,F,
Girls,110+,1,Bisola Olusomiro,Saginaw,126.42,165.56,79.38,133.81,378.75,Unlimited,SBD,F,
Girls,110+,2,Zoi Anderson,McKinney North,110.81,156.49,74.84,142.88,374.21,Unlimited,SBD,F,
Girls,110+,3,Giselle Redding,Azle,148.1,140.61,92.99,124.74,358.34,Unlimited,SBD,F,
Girls,110+,4,Mikayla Giles,McKinney North,117.39,133.81,72.57,117.93,324.32,Unlimited,SBD,F,
Girls,110+,5,Ariana Tario,Carrollton Turner,115.3,108.86,63.5,122.47,294.84,Unlimited,SBD,F,
Girls,110+,DQ,Seven Brown,Justin Northwest,132.59,129.27,70.31,,,Unlimited,SBD,F,
Girls,110+,DQ,Mia McGauley,Saginaw,119.7,,,,,Unlimited,SBD,F,
