Place,Name,Sex,BirthDate,BirthYear,Age,Equipment,Division,BodyweightKg,WeightClassKg,Squat1Kg,Squat2Kg,Squat3Kg,Best3SquatKg,Bench1Kg,Bench2Kg,Bench3Kg,Best3BenchKg,Deadlift1Kg,Deadlift2Kg,Deadlift3Kg,Best3DeadliftKg,TotalKg,Event
1,Praveena Thurairajasingam-Mukunthan,F,,2002,,Raw,FR-Jr,41.56,43,77.5,85,90,90,40,-45,-45,40,95,107.5,112.5,112.5,242.5,SBD
1,Holly Hunt,F,,2001,,Raw,FR-Jr,73.88,76,110,120,127.5,127.5,65,70,-72.5,70,130,140,150,150,347.5,SBD
1,Jess Harris,F,,2002,,Raw,FR-Jr,83.5,84,95,-107.5,110,110,47.5,52.5,55,55,120,132.5,-142.5,132.5,297.5,SBD
1,Camille Chen,F,,1975,,Raw,FR-M1,61.84,63,92.5,97.5,102.5,102.5,52.5,55,-57.5,55,-105,112.5,122.5,122.5,280,SBD
2,Mary Slater,F,,1977,,Raw,FR-M1,60.34,63,80,-95,95,95,57.5,60,-62.5,60,110,-122.5,122.5,122.5,277.5,SBD
1,Amie Culverson,F,,1980,,Raw,FR-M1,66.84,69,92.5,100,105,105,55,-60,-60,55,107.5,117.5,130,130,290,SBD
2,Melissa Trivic,F,,1978,,Raw,FR-M1,68.44,69,90,97.5,102.5,102.5,37.5,-42.5,42.5,42.5,127.5,137.5,145,145,290,SBD
1,Alexis Hayto,F,,1981,,Raw,FR-M1,75.18,76,110,120,130,130,80,85,87.5,87.5,145,155,162.5,162.5,380,SBD
2,Olivia Lannon,F,,1980,,Raw,FR-M1,71.22,76,110,120,130,130,57.5,62.5,-67.5,62.5,142.5,152.5,165,165,357.5,SBD
1,Kellie Socratous,F,,1982,,Raw,FR-M1,83.74,84,115,125,130,130,70,72.5,-75,72.5,125,135,145,145,347.5,SBD
1,Tammy Kenny,F,,1970,,Raw,FR-M2,61.62,63,100,107.5,110,110,52.5,55,57.5,57.5,140,147.5,155,155,322.5,SBD
1,Melinda Craggs,F,,1968,,Raw,FR-M2,82.34,84,-110,120,-130,120,70,-75,-75,70,140,150,155,155,345,SBD
1,Leanne Quinn,F,,1971,,Raw,FR-M2,115.64,84+,105,112.5,117.5,117.5,67.5,-72.5,72.5,72.5,122.5,132.5,140,140,330,SBD
1,Melinda Eylward,F,,1961,,Raw,FR-M3,57.1,63,-85,90,100,100,50,-55,-55,50,100,110,120,120,270,SBD
1,Jess Pham,F,,1996,,Raw,FR-O,46.54,47,87.5,95,-100,95,62.5,65,-67.5,65,120,-127.5,127.5,127.5,287.5,SBD
2,Keesha Ong,F,,1998,,Raw,FR-O,46.54,47,75,80,85,85,37.5,40,-42.5,40,95,100,105,105,230,SBD
1,Daisy Brooks,F,,2001,,Raw,FR-O,55.9,57,117.5,125,130,130,65,67.5,70,70,122.5,132.5,137.5,137.5,337.5,SBD
2,Maiko Okamoto,F,,1984,,Raw,FR-O,55.3,57,-95,100,110,110,52.5,57.5,60,60,105,120,130,130,300,SBD
3,Jasmijn Tadros,F,,1992,,Raw,FR-O,56.44,57,82.5,87.5,90,90,42.5,47.5,-50,47.5,112.5,-115,-115,112.5,250,SBD
1,Basira Khan,F,,2002,,Raw,FR-O,59.56,63,90,100,110,110,52.5,55,-57.5,55,120,135,142.5,142.5,307.5,SBD
2,Wiebka Hensen,F,,1997,,Raw,FR-O,61.28,63,82.5,87.5,92.5,92.5,52.5,55,-60,55,115,122.5,130,130,277.5,SBD
3,Claire Haddon-Casey,F,,1985,,Raw,FR-O,59.28,63,80,87.5,92.5,92.5,42.5,-47.5,47.5,47.5,112.5,122.5,130,130,270,SBD
4,Hana Minhaj,F,,1993,,Raw,FR-O,61.92,63,67.5,72.5,77.5,77.5,45,50,52.5,52.5,105,117.5,-122.5,117.5,247.5,SBD
1,Clarence Carpio,F,,1995,,Raw,FR-O,68.66,69,-107.5,112.5,120,120,60,-65,-65,60,120,-130,130,130,310,SBD
2,Lani Carruthers,F,,1995,,Raw,FR-O,66.6,69,102.5,110,117.5,117.5,50,55,57.5,57.5,115,122.5,130,130,305,SBD
1,Holly Poingdestre,F,,1992,,Raw,FR-O,83.04,84,110,120,130,130,67.5,70,-72.5,70,130,140,150,150,350,SBD
1,Jessica Quarrell,F,,1984,,Raw,FR-O,135.08,84+,120,132.5,142.5,142.5,82.5,90,-95,90,120,-122.5,-122.5,120,352.5,SBD
2,Madison Pearce,F,,1999,,Raw,FR-O,93.98,84+,90,105,115,115,60,65,67.5,67.5,115,127.5,140,140,322.5,SBD
3,Rebecca Randell,F,,1971,,Raw,FR-O,93.26,84+,97.5,105,-112.5,105,55,60,-62.5,60,112.5,125,-130,125,290,SBD
G,Sharna Sumpton,F,,1974,,Raw,FR-M1,63.16,69,95,105,110,110,47.5,-52.5,52.5,52.5,115,125,-130,125,287.5,SBD
1,Daniel Nguyen #7,M,,2006,,Raw,MR-SJ,72.2,74,155,172.5,-182.5,172.5,-80,-80,80,80,185,200,217.5,217.5,470,SBD
1,Taj Morris,M,,2005,,Raw,MR-SJ,78.8,83,137.5,152.5,160,160,72.5,80,85,85,182.5,192.5,-205,192.5,437.5,SBD
2,Dylan Pellias,M,,2006,,Raw,MR-SJ,80.12,83,120,132.5,145,145,-60,70,-72.5,70,147.5,162.5,177.5,177.5,392.5,SBD
1,Jesse Dominguez,M,,2006,,Raw,MR-SJ,100.34,105,145,155,162.5,162.5,100,107.5,-110,107.5,185,200,-210,200,470,SBD
1,Ralph Liang,M,,2003,,Raw,MR-Jr,64.6,66,140,155,165,165,110,115,-120,115,160,175,195,195,475,SBD
1,Jessy Lovitos,M,,2002,,Raw,MR-Jr,72.56,74,175,185,190,190,107.5,112.5,-117.5,112.5,210,220,230,230,532.5,SBD
2,Shane Dingsdale,M,,2003,,Raw,MR-Jr,72.84,74,167.5,-190,-200,167.5,87.5,90,102.5,102.5,190,210,-232.5,210,480,SBD
3,Sachin Jain,M,,2001,,Raw,MR-Jr,70.22,74,115,122.5,130,130,80,87.5,90,90,180,192.5,-200,192.5,412.5,SBD
4,James Asilo,M,,2003,,Raw,MR-Jr,73.1,74,125,-137.5,142.5,142.5,70,75,82.5,82.5,145,160,180,180,405,SBD
1,Aaron Moore,M,,2004,,Raw,MR-Jr,82.72,83,217.5,225,232.5,232.5,137.5,-142.5,-142.5,137.5,227.5,240,250,250,620,SBD
2,Dimitri Tsagaris,M,,2002,,Raw,MR-Jr,78.14,83,185,197.5,205,205,145,150,155,155,220,232.5,240,240,600,SBD
3,Aditya Bhatt,M,,2002,,Raw,MR-Jr,82.78,83,190,202.5,207.5,207.5,115,-120,-120,115,235,-247.5,-247.5,235,557.5,SBD
4,Mark Alipio,M,,2002,,Raw,MR-Jr,79.84,83,150,160,175,175,100,110,-120,110,232.5,255,260,260,545,SBD
5,Hoang Nguyen #2,M,,2001,,Raw,MR-Jr,82.82,83,175,190,-192.5,190,100,110,115,115,185,200,-230,200,505,SBD
6,Bailey Cook,M,,2003,,Raw,MR-Jr,79.4,83,155,167.5,185,185,100,105,-110,105,170,182.5,190,190,480,SBD
7,Noah Breznansky,M,,2003,,Raw,MR-Jr,79.26,83,157.5,165,175,175,80,87.5,90,90,175,185,200,200,465,SBD
8,Reese Noble,M,,2003,,Raw,MR-Jr,79.28,83,147.5,160,165,165,90,95,100,100,125,140,155,155,420,SBD
1,Callum Doropoulos,M,,2003,,Raw,MR-Jr,91.16,93,190,200,207.5,207.5,120,127.5,137.5,137.5,210,220,230,230,575,SBD
2,Levi Forbes,M,,2004,,Raw,MR-Jr,91.62,93,-170,180,200,200,107.5,117.5,125,125,182.5,200,-215,200,525,SBD
3,Keenan Forbes,M,,2003,,Raw,MR-Jr,91.76,93,-150,160,-175,160,95,107.5,110,110,160,175,180,180,450,SBD
4,Blake Price,M,,2002,,Raw,MR-Jr,92.02,93,135,145,150,150,85,90,92.5,92.5,145,162.5,177.5,177.5,420,SBD
1,Thomas McLoughlin,M,,2002,,Raw,MR-Jr,94.38,105,155,162.5,170,170,110,115,120,120,165,180,200,200,490,SBD
2,Ian Bastyan,M,,2004,,Raw,MR-Jr,96.28,105,145,-160,-160,145,-105,105,107.5,107.5,175,-185,-185,175,427.5,SBD
1,Dakota Rassip,M,,2001,,Raw,MR-Jr,118.08,120,215,227.5,235,235,160,167.5,172.5,172.5,250,-265,265,265,672.5,SBD
1,Willem Fourie,M,,1983,,Raw,MR-M1,88.78,93,135,-145,150,150,85,90,-95,90,155,165,175,175,415,SBD
1,Travis Blentweyne,M,,1983,,Raw,MR-M1,119.62,120,122.5,135,142.5,142.5,82.5,90,-92.5,90,140,152.5,-157.5,152.5,385,SBD
1,Mark Barker,M,,1973,,Raw,MR-M2,92.38,93,135,-145,-145,135,70,75,-80,75,157.5,170,175,175,385,SBD
1,Terry Butler-Blaxell,M,,1971,,Raw,MR-M2,104.38,105,195,205,215,215,152.5,157.5,-160,157.5,175,230,245,245,617.5,SBD
1,Castor John Dumaguing,M,,1998,,Raw,MR-O,63.44,66,157.5,167.5,172.5,172.5,85,90,95,95,180,192.5,200,200,467.5,SBD
2,Daniel Rice,M,,1989,,Raw,MR-O,65.86,66,150,155,157.5,157.5,107.5,-110,-110,107.5,175,182.5,-185,182.5,447.5,SBD
3,Anthony Verity,M,,1997,,Raw,MR-O,65.14,66,125,135,145,145,92.5,102.5,-110,102.5,160,172.5,177.5,177.5,425,SBD
1,Kris Andrews,M,,1986,,Raw,MR-O,73.24,74,165,177.5,182.5,182.5,95,100,105,105,205,215,-220,215,502.5,SBD
2,Timothy Halim,M,,1984,,Raw,MR-O,70.48,74,-145,145,160,160,75,82.5,90,90,177.5,192.5,205,205,455,SBD
3,Daniel Thaung,M,,1994,,Raw,MR-O,72.56,74,145,155,-160,155,82.5,-87.5,-87.5,82.5,175,185,-195,185,422.5,SBD
1,Jonathan Caruso,M,,1993,,Raw,MR-O,82.48,83,255,265,270,270,165,175,185,185,265,280,-295,280,735,SBD
2,Sankalp Singam,M,,1991,,Raw,MR-O,82.16,83,210,220,227.5,227.5,110,117.5,122.5,122.5,230,245,252.5,252.5,602.5,SBD
3,Hans Leste,M,,1999,,Raw,MR-O,82.54,83,165,180,187.5,187.5,110,117.5,-122.5,117.5,195,215,222.5,222.5,527.5,SBD
4,Tyler Harrison,M,,1998,,Raw,MR-O,81.28,83,160,170,180,180,85,95,-105,95,185,195,212.5,212.5,487.5,SBD
5,Neale Williams,M,,1986,,Raw,MR-O,82.28,83,150,162.5,170,170,107.5,115,125,125,180,192.5,-210,192.5,487.5,SBD
6,Daniel Heffernan,M,,1987,,Raw,MR-O,82.58,83,145,155,160,160,95,-97.5,-97.5,95,180,195,200,200,455,SBD
7,Josh Elsing,M,,1998,,Raw,MR-O,82.1,83,135,150,165,165,100,105,107.5,107.5,160,180,-197.5,180,452.5,SBD
8,Keiran Barrett,M,,1998,,Raw,MR-O,82.2,83,140,150,-155,150,100,105,110,110,177.5,187.5,-200,187.5,447.5,SBD
1,George Hobbs,M,,1995,,Raw,MR-O,86.36,93,160,180,200,200,120,130,-140,130,-220,240,265,265,595,SBD
2,Benjamin Thornbury,M,,1988,,Raw,MR-O,92.24,93,205,-220,220,220,135,-137.5,137.5,137.5,220,232.5,-242.5,232.5,590,SBD
3,Andy Chau,M,,1997,,Raw,MR-O,88.76,93,175,187.5,197.5,197.5,127.5,135,-140,135,-215,225,237.5,237.5,570,SBD
4,Odin Thomas,M,,1995,,Raw,MR-O,90.52,93,180,190,200,200,125,130,132.5,132.5,215,225,235,235,567.5,SBD
5,Tim Forrest,M,,1991,,Raw,MR-O,90.06,93,170,180,190,190,107.5,112.5,-115,112.5,230,240,250,250,552.5,SBD
6,Tim Wallace,M,,1996,,Raw,MR-O,92.9,93,-180,-182.5,182.5,182.5,100,-107.5,107.5,107.5,210,220,230,230,520,SBD
7,Darren Chan,M,,1996,,Raw,MR-O,92.1,93,135,142.5,-147.5,142.5,80,85,-90,85,157.5,170,180,180,407.5,SBD
1,Adam Jones #1,M,,1987,,Raw,MR-O,96.94,105,285,302.5,310,310,147.5,155,-160,155,305,320,-335,320,785,SBD
2,Taj Smith,M,,2005,,Raw,MR-O,98.74,105,235,250,-252.5,250,125,-132.5,-132.5,125,270,290,-305,290,665,SBD
3,Zac Fryer,M,,1999,,Raw,MR-O,94.82,105,215,230,-235,230,142.5,150,152.5,152.5,230,245,260,260,642.5,SBD
4,Tim Ferguson,M,,2002,,Raw,MR-O,102.4,105,-220,220,235,235,150,155,-157.5,155,250,-265,-270,250,640,SBD
5,Leigh Wiltshire,M,,1985,,Raw,MR-O,102.24,105,210,230,-250,230,142.5,152.5,157.5,157.5,210,230,245,245,632.5,SBD
6,Zhi Zhong Chew,M,,1990,,Raw,MR-O,103,105,207.5,-217.5,217.5,217.5,145,152.5,-157.5,152.5,235,250,260,260,630,SBD
7,Jonty Hollins,M,,1994,,Raw,MR-O,98.52,105,202.5,215,-220,215,125,-135,135,135,230,240,260,260,610,SBD
8,Nathan Young #1,M,,2000,,Raw,MR-O,103.52,105,200,215,-217.5,215,180,200,210,210,150,-152.5,-152.5,150,575,SBD
9,Matt Romney,M,,1994,,Raw,MR-O,98.54,105,167.5,180,182.5,182.5,115,122.5,125,125,190,205,-220,205,512.5,SBD
10,Thomas Davidson,M,,1988,,Raw,MR-O,103.42,105,165,175,180,180,105,-110,110,110,210,-225,-225,210,500,SBD
11,Ryan Kittle,M,,1975,,Raw,MR-O,99.98,105,165,170,175,175,115,-120,120,120,175,185,195,195,490,SBD
12,Liam Spadoni,M,,1999,,Raw,MR-O,104,105,160,172.5,180,180,95,-102.5,-102.5,95,190,210,-225,210,485,SBD
1,Cody Wilks,M,,1993,,Raw,MR-O,110.32,120,250,270,285,285,170,180,-187.5,180,290,320,340,340,805,SBD
2,Tristan Sunde,M,,2001,,Raw,MR-O,114.52,120,260,277.5,-290,277.5,155,165,170,170,285,305,320,320,767.5,SBD
3,Adam Walsh,M,,1993,,Raw,MR-O,118.88,120,260,275,-292.5,275,165,175,185,185,250,270,280,280,740,SBD
4,Jose Vidal,M,,1990,,Raw,MR-O,119.48,120,225,240,-250,240,140,150,-160,150,240,260,270,270,660,SBD
5,Ricaldo Steyn,M,,1999,,Raw,MR-O,109.34,120,205,222.5,235,235,120,125,130,130,180,195,215,215,580,SBD
1,Alexander Freeman #2,M,,1998,,Raw,MR-O,130.1,120+,225,235,-240,235,155,-165,165,165,265,285,300,300,700,SBD
2,Keegan Smart,M,,1996,,Raw,MR-O,124.04,120+,210,220,230,230,140,150,160,160,220,240,260,260,650,SBD
3,Jackson Stubberfield,M,,1995,,Raw,MR-O,146.44,120+,170,-222.5,-235,170,165,185,195,195,220,250,280,280,645,SBD
G,Thomas Cant,M,,1999,,Raw,MR-O,84.4,93,165,175,190,190,102.5,112.5,-117.5,112.5,170,180,190,190,492.5,SBD
1,Aaron Dahler,M,,1983,,Single-ply,M-O,119,120,255,270,-285,270,-160,160,170,170,260,275,285,285,725,SBD
