Division,WeightClassKg,Place,Name,Team,BodyweightKg,Best3SquatKg,Best3BenchKg,Best3DeadliftKg,TotalKg,Equipment,Event,Sex
Boys,51.71,1,Adrian Flores,San Antonio Holy Cross,51.26,142.88,70.31,161.03,374.21,Single-ply,SBD,M
Boys,51.71,2,Ricky Moreno,San Antonio Holy Cross,51.53,72.57,43.09,117.93,233.6,Single-ply,SBD,M
Boys,55.79,1,Raul Narvaez,Floresville,55.66,161.03,83.91,167.83,412.77,Single-ply,SBD,M
Boys,55.79,2,Joey Garcia,Marion,54.52,131.54,72.57,163.29,367.41,Single-ply,SBD,M
Boys,55.79,DQ,Cody Juarez,Alice,54.39,,,,,Single-ply,SBD,M
Boys,59.87,1,Manuel Padilla,Natalia,59.33,188.24,92.99,181.44,462.66,Single-ply,SBD,M
Boys,59.87,2,Roman Ornelaz,San Antonio Holy Cross,59.33,161.03,81.65,190.51,433.18,Single-ply,SBD,M
Boys,59.87,3,Sebastian Flores,Blanco,56.88,149.69,97.52,163.29,410.5,Single-ply,SBD,M
Boys,59.87,4,Christian Flores,Blanco,59.65,161.03,79.38,145.15,385.55,Single-ply,SBD,M
Boys,59.87,5,Isaiah Riojas,San Antonio Southwest,59.38,142.88,83.91,156.49,383.29,Single-ply,SBD,M
Boys,59.87,6,Ryan Juarez,Natalia,59.47,140.61,77.11,165.56,383.29,Single-ply,SBD,M
Boys,59.87,7,Hunter Young #1,Marion,58.2,111.13,68.04,145.15,324.32,Single-ply,SBD,M
Boys,59.87,8,Maximus Perez,Lytle,57.88,113.4,56.7,120.2,290.3,Single-ply,SBD,M
Boys,59.87,9,Juan Santos,San Antonio Holy Cross,59.28,90.72,54.43,113.4,258.55,Single-ply,SBD,M
Boys,59.87,DQ,Matthew Gauthier,Marion,58.11,147.42,97.52,,,Single-ply,SBD,M
Boys,67.13,1,Stephen Garza,Lytle,66.27,176.9,97.52,208.65,483.08,Single-ply,SBD,M
Boys,67.13,2,Justin Perez,San Antonio Holy Cross,65.63,176.9,83.91,206.38,467.2,Single-ply,SBD,M
Boys,67.13,3,Joseph Lopez #7,Lytle,67.09,151.95,106.59,199.58,458.13,Single-ply,SBD,M
Boys,67.13,4,David Ortega,Lytle,65.68,158.76,95.25,201.85,455.86,Single-ply,SBD,M
Boys,67.13,5,Steven Flores,Blanco,66.95,172.37,102.06,176.9,451.32,Single-ply,SBD,M
Boys,67.13,6,Brian Burnes,Bandera,63.87,149.69,79.38,149.69,378.75,Single-ply,SBD,M
Boys,67.13,7,Isaac Bourg,Bandera,66.04,142.88,74.84,161.03,378.75,Single-ply,SBD,M
Boys,67.13,8,Dunn Morrow,Bandera,67.13,129.27,88.45,140.61,358.34,Single-ply,SBD,M
Boys,67.13,9,John Slaughter,Bandera,63.64,122.47,81.65,147.42,351.53,Single-ply,SBD,M
Boys,67.13,10,Tristan Lowery,Lytle,64.23,120.2,81.65,142.88,344.73,Single-ply,SBD,M
Boys,67.13,11,Jj Roman,Bandera,65.73,111.13,65.77,142.88,319.78,Single-ply,SBD,M
Boys,67.13,12,Reese McDole,Natalia,66.72,102.06,61.23,108.86,272.16,Single-ply,SBD,M
Boys,67.13,DQ,Kevin Hernandez,Floresville,60.33,,,,,Single-ply,SBD,M
Boys,74.84,1,Alex Gonzales #2,Alice,73.3,272.16,127.01,231.33,630.49,Single-ply,SBD,M
Boys,74.84,2,Nick Gonzales,Floresville,74.53,206.38,142.88,229.06,578.33,Single-ply,SBD,M
Boys,74.84,3,Darren Graham,San Antonio Holy Cross,72.57,204.12,120.2,199.58,523.9,Single-ply,SBD,M
Boys,74.84,4,Edher Nava,Marion,74.34,170.1,108.86,195.04,474,Single-ply,SBD,M
Boys,74.84,5,Seth Taggs,Floresville,70.08,170.1,102.06,172.37,444.52,Single-ply,SBD,M
Boys,74.84,6,Paco Vargas,Blanco,67.72,158.76,81.65,174.63,415.04,Single-ply,SBD,M
Boys,74.84,7,Matthew Quigley,Marion,74.84,142.88,97.52,170.1,410.5,Single-ply,SBD,M
Boys,74.84,8,Matthew Contreras,Natalia,68.27,165.56,77.11,156.49,399.16,Single-ply,SBD,M
Boys,74.84,9,Aiden Keane,Bandera,68.95,147.42,74.84,142.88,365.14,Single-ply,SBD,M
Boys,74.84,10,Jessie Zimmel,Bandera,72.03,142.88,102.06,,244.94,Single-ply,SB,M
Boys,82.1,1,Robert Adame,San Antonio Holy Cross,81.01,240.4,174.63,238.14,653.17,Single-ply,SBD,M
Boys,82.1,2,Isaac Bueno,Alice,81.65,235.87,142.88,204.12,582.87,Single-ply,SBD,M
Boys,82.1,3,Joseph Perez,Lytle,80.51,197.31,115.67,183.7,496.68,Single-ply,SBD,M
Boys,82.1,4,Isaiah Gomez,Natalia,81.06,183.7,108.86,181.44,474,Single-ply,SBD,M
Boys,82.1,5,Alex Jannell,Bandera,76.61,174.63,131.54,161.03,467.2,Single-ply,SBD,M
Boys,82.1,6,Joel Rios,Natalia,77.25,174.63,102.06,176.9,453.59,Single-ply,SBD,M
Boys,82.1,7,Ray Rizo,Natalia,76.02,181.44,99.79,165.56,446.79,Single-ply,SBD,M
Boys,82.1,8,Gavin Guajardo,San Antonio Southwest,78.65,158.76,122.47,163.29,444.52,Single-ply,SBD,M
Boys,82.1,9,Beck Nevarez,Blanco,81.56,158.76,95.25,176.9,430.91,Single-ply,SBD,M
Boys,82.1,10,Jarret Wallen,Marion,80.51,149.69,104.33,170.1,424.11,Single-ply,SBD,M
Boys,82.1,11,Matthew Manka,Natalia,81.37,165.56,79.38,165.56,410.5,Single-ply,SBD,M
Boys,82.1,12,Thomas Lara,Natalia,79.7,158.76,77.11,161.03,396.89,Single-ply,SBD,M
Boys,89.81,1,Mathew Olivarri,Alice,85.5,226.8,147.42,226.8,601.01,Single-ply,SBD,M
Boys,89.81,2,DeAndre Harden,Lytle,89.72,215.46,122.47,199.58,537.51,Single-ply,SBD,M
Boys,89.81,3,Kyle Martinez,Blanco,89.68,206.38,127.01,188.24,521.63,Single-ply,SBD,M
Boys,89.81,4,Jacob Ruiz,Blanco,89.68,199.58,127.01,188.24,514.83,Single-ply,SBD,M
Boys,89.81,5,Devin Wallace,Blanco,88.31,197.31,120.2,192.78,510.29,Single-ply,SBD,M
Boys,89.81,6,Kenton Spriggs,Marion,89.4,176.9,120.2,201.85,498.95,Single-ply,SBD,M
Boys,89.81,7,Alejandro Sanchez,Natalia,87.54,185.97,106.59,201.85,494.42,Single-ply,SBD,M
Boys,89.81,8,Caden Fregia,Natalia,87.18,181.44,122.47,170.1,474,Single-ply,SBD,M
Boys,89.81,9,Kyle Ferell,Floresville,87.36,183.7,104.33,183.7,471.74,Single-ply,SBD,M
Boys,89.81,10,Tucker Walters,Marion,85,163.29,106.59,195.04,464.93,Single-ply,SBD,M
Boys,89.81,11,Chance Lamb,Natalia,84.69,176.9,102.06,176.9,455.86,Single-ply,SBD,M
Boys,89.81,12,Michael Martinez #10,Natalia,88.54,174.63,102.06,174.63,451.32,Single-ply,SBD,M
Boys,89.81,13,Kameron Frias,Natalia,88.04,158.76,106.59,181.44,446.79,Single-ply,SBD,M
Boys,89.81,14,Elias Cruz,Bandera,87.45,147.42,92.99,142.88,383.29,Single-ply,SBD,M
Boys,89.81,15,Tristian Herrera,San Antonio Southwest,87.18,104.33,68.04,117.93,290.3,Single-ply,SBD,M
Boys,99.79,1,Raymond Casarez,San Antonio Holy Cross,98.7,288.03,158.76,247.21,694,Single-ply,SBD,M
Boys,99.79,2,Julian Martinez,Natalia,99.56,249.48,142.88,249.48,641.83,Single-ply,SBD,M
Boys,99.79,3,Hagen Brown,Floresville,92.17,244.94,161.03,229.06,635.03,Single-ply,SBD,M
Boys,99.79,4,Javier Hernandez,Natalia,94.57,195.04,120.2,215.46,530.7,Single-ply,SBD,M
Boys,99.79,5,Seth Almendarez,San Antonio Holy Cross,99.61,210.92,122.47,190.51,523.9,Single-ply,SBD,M
Boys,99.79,6,Gino Santos,San Antonio Holy Cross,94.85,188.24,95.25,213.19,496.68,Single-ply,SBD,M
Boys,99.79,7,Peter Billalobos,Natalia,92.71,190.51,99.79,199.58,489.88,Single-ply,SBD,M
Boys,99.79,8,Nathan Cavazos,San Antonio Holy Cross,98.79,210.92,95.25,165.56,471.74,Single-ply,SBD,M
Boys,99.79,9,Uriel Arellano,Natalia,94.71,170.1,129.27,156.49,455.86,Single-ply,SBD,M
Boys,99.79,10,Angel Aguilar,Bandera,96.93,158.76,124.74,167.83,451.32,Single-ply,SBD,M
Boys,99.79,11,Will Adams,Blanco,98.97,167.83,106.59,165.56,439.98,Single-ply,SBD,M
Boys,99.79,12,Mauricio Chavez,Floresville,91.49,161.03,102.06,174.63,437.72,Single-ply,SBD,M
Boys,99.79,13,Chris Tenorio,San Antonio Southwest,95.57,138.35,115.67,163.29,417.3,Single-ply,SBD,M
Boys,99.79,14,Jonathan Luna,San Antonio Southwest,91.99,156.49,104.33,147.42,408.23,Single-ply,SBD,M
Boys,99.79,15,Samuel Macneil,Bandera,99.34,149.69,106.59,136.08,392.36,Single-ply,SBD,M
Boys,99.79,16,Ivan Valencia #2,San Antonio Southwest,90.31,142.88,95.25,142.88,381.02,Single-ply,SBD,M
Boys,99.79,17,Samuel Grodman,Bandera,91.99,149.69,88.45,142.88,381.02,Single-ply,SBD,M
Boys,109.77,1,Austen Flores #1,San Antonio Holy Cross,107.64,265.35,142.88,276.69,684.92,Single-ply,SBD,M
Boys,109.77,2,Jacob Thomas,Floresville,104.78,265.35,149.69,197.31,612.35,Single-ply,SBD,M
Boys,109.77,3,Chance Horton,Blanco,105.01,210.92,136.08,185.97,532.97,Single-ply,SBD,M
Boys,109.77,4,Eric Rodriguez,Floresville,108.41,204.12,113.4,192.78,510.29,Single-ply,SBD,M
Boys,109.77,5,Francisco Duran,Marion,101.83,183.7,111.13,208.65,503.49,Single-ply,SBD,M
Boys,109.77,6,Amador Colmenero,Lytle,106.55,183.7,115.67,183.7,483.08,Single-ply,SBD,M
Boys,109.77,7,Jesus Gomez,San Antonio Southwest,105.69,154.22,113.4,163.29,430.91,Single-ply,SBD,M
Boys,109.77,8,Mario Sanchez,San Antonio Southwest,104.46,147.42,95.25,170.1,412.77,Single-ply,SBD,M
Boys,109.77,9,Joshua Pereida,San Antonio Southwest,106,142.88,88.45,145.15,376.48,Single-ply,SBD,M
Boys,109.77,DQ,Sammy Macneil,Bandera,99.88,,,,,Single-ply,SBD,M
Boys,124.74,1,Elijah Amaro,San Antonio Southwest,123.97,229.06,167.83,195.04,591.94,Single-ply,SBD,M
Boys,124.74,2,Logan Crane,Bandera,112.81,226.8,145.15,195.04,566.99,Single-ply,SBD,M
Boys,124.74,3,George Lockamy,Floresville,116.94,215.46,102.06,195.04,512.56,Single-ply,SBD,M
Boys,124.74,4,Damien Hernandez,San Antonio Holy Cross,117.21,188.24,122.47,185.97,496.68,Single-ply,SBD,M
Boys,124.74,5,Paul Billalbos,Natalia,115.39,192.78,90.72,174.63,458.13,Single-ply,SBD,M
Boys,124.74,6,Arturo Lopez,San Antonio Southwest,124.69,185.97,106.59,163.29,455.86,Single-ply,SBD,M
Boys,124.74,7,Isaiah Ibarra,San Antonio Southwest,114.4,142.88,88.45,145.15,376.48,Single-ply,SBD,M
Boys,124.74,8,Juan Jose Perez,Lytle,116.98,222.26,108.86,,331.12,Single-ply,SB,M
Boys,124.74+,1,Joseph Peña #1,San Antonio Holy Cross,160.12,340.19,224.53,276.69,841.41,Single-ply,SBD,M
Boys,124.74+,2,Victor Cruz,Natalia,130.04,240.4,142.88,226.8,610.08,Single-ply,SBD,M
Boys,124.74+,3,Roger Lara,San Antonio Southwest,165.79,183.7,145.15,183.7,512.56,Single-ply,SBD,M
Boys,124.74+,4,Joshua Martinez,San Antonio Southwest,141.93,183.7,122.47,174.63,480.81,Single-ply,SBD,M
Boys,124.74+,5,Caleb Calamaco,San Antonio Southwest,127.28,172.37,104.33,183.7,460.4,Single-ply,SBD,M
Boys,124.74+,6,Robert Gonyer,Marion,126.55,156.49,111.13,172.37,439.98,Single-ply,SBD,M
Boys,124.74+,DQ,Joshua Van Dong,Lytle,154.22,,,,,Single-ply,SBD,M
